[0] Config.pm:307> INFO - This is Biber 2.17
[0] Config.pm:310> INFO - Logfile is 'solarwind.blg'
[36] biber:340> INFO - === Mon Jun  3, 2024, 03:45:52
[54] Biber.pm:418> INFO - Reading 'solarwind.bcf'
[84] Biber.pm:969> INFO - Using all citekeys in bib section 0
[93] Biber.pm:4383> INFO - Processing section 0
[100] Biber.pm:4574> INFO - Looking for bibtex file 'solarWind.bib' for section 0
[142] bibtex.pm:1713> INFO - LaTeX decoding ...
[168] bibtex.pm:1518> INFO - Found BibTeX data source 'solarWind.bib'
[285] UCollate.pm:68> INFO - Overriding locale 'en-US' defaults 'variable = shifted' with 'variable = non-ignorable'
[286] UCollate.pm:68> INFO - Overriding locale 'en-US' defaults 'normalization = NFD' with 'normalization = prenormalized'
[286] Biber.pm:4203> INFO - Sorting list 'none/global//global/global' of type 'entry' with template 'none' and locale 'en-US'
[286] Biber.pm:4209> INFO - No sort tailoring available for locale 'en-US'
[295] bbl.pm:654> INFO - Writing 'solarwind.bbl' with encoding 'UTF-8'
[329] bbl.pm:757> INFO - Output to solarwind.bbl
