\relax 
\abx@aux@refcontext{none/global//global/global}
\abx@aux@cite{0}{amaro2017laser}
\abx@aux@segm{0}{0}{amaro2017laser}
\abx@aux@cite{0}{LIGO2015}
\abx@aux@segm{0}{0}{LIGO2015}
\abx@aux@cite{0}{amaro2017laser}
\abx@aux@segm{0}{0}{amaro2017laser}
\abx@aux@cite{0}{amaro2017laser}
\abx@aux@segm{0}{0}{amaro2017laser}
\@writefile{toc}{\contentsline {section}{\numberline {1}Introduction}{1}{}\protected@file@percent }
\abx@aux@cite{0}{shaul2006solar}
\abx@aux@segm{0}{0}{shaul2006solar}
\newlabel{Figure 1}{{1}{2}}
\abx@aux@cite{0}{frank2020modeling}
\abx@aux@segm{0}{0}{frank2020modeling}
\abx@aux@cite{0}{kaieser-et-al-2008}
\abx@aux@segm{0}{0}{kaieser-et-al-2008}
\abx@aux@cite{0}{https://doi.org/10.1029/1999JA000262}
\abx@aux@segm{0}{0}{https://doi.org/10.1029/1999JA000262}
\abx@aux@cite{0}{aceswepamlevel2data}
\abx@aux@segm{0}{0}{aceswepamlevel2data}
\abx@aux@cite{0}{aceswepamlevel2data}
\abx@aux@segm{0}{0}{aceswepamlevel2data}
\abx@aux@cite{0}{frank2020modeling}
\abx@aux@segm{0}{0}{frank2020modeling}
\abx@aux@cite{0}{thorpe2019micrometeoroid}
\abx@aux@segm{0}{0}{thorpe2019micrometeoroid}
\abx@aux@cite{0}{Grimani_2006}
\abx@aux@segm{0}{0}{Grimani_2006}
\abx@aux@cite{0}{10.1093/mnras/stac316}
\abx@aux@segm{0}{0}{10.1093/mnras/stac316}
\abx@aux@cite{0}{smetana2020background}
\abx@aux@segm{0}{0}{smetana2020background}
\abx@aux@cite{0}{shaul2006solar}
\abx@aux@segm{0}{0}{shaul2006solar}
\@writefile{toc}{\contentsline {subsection}{\numberline {1.1}Related Works}{3}{}\protected@file@percent }
\abx@aux@cite{0}{harris2020array}
\abx@aux@segm{0}{0}{harris2020array}
\abx@aux@cite{0}{aceswepamlevel2data}
\abx@aux@segm{0}{0}{aceswepamlevel2data}
\abx@aux@cite{0}{amaro2017laser}
\abx@aux@segm{0}{0}{amaro2017laser}
\abx@aux@cite{0}{aceswepamlevel2data}
\abx@aux@segm{0}{0}{aceswepamlevel2data}
\abx@aux@cite{0}{frank2020modeling}
\abx@aux@segm{0}{0}{frank2020modeling}
\abx@aux@cite{0}{frank2020modeling}
\abx@aux@segm{0}{0}{frank2020modeling}
\newlabel{Figure 2}{{2}{4}}
\@writefile{toc}{\contentsline {section}{\numberline {2}Methods}{4}{}\protected@file@percent }
\@writefile{toc}{\contentsline {subsection}{\numberline {2.1}Process for Creating Plottable ACE Data}{4}{}\protected@file@percent }
\abx@aux@cite{0}{frank2020modeling}
\abx@aux@segm{0}{0}{frank2020modeling}
\abx@aux@cite{0}{frank2020modeling}
\abx@aux@segm{0}{0}{frank2020modeling}
\abx@aux@cite{0}{frank2020modeling}
\abx@aux@segm{0}{0}{frank2020modeling}
\abx@aux@cite{0}{frank2020modeling}
\abx@aux@segm{0}{0}{frank2020modeling}
\abx@aux@cite{0}{frank2020modeling}
\abx@aux@segm{0}{0}{frank2020modeling}
\newlabel{eq:Gaussian Window Equations}{{1}{5}}
\newlabel{eq1}{{1}{5}}
\newlabel{eq:Hann Window}{{2}{5}}
\newlabel{eq2}{{2}{5}}
\newlabel{tab1}{{1}{5}}
\newlabel{eq:Number of Particles Equation}{{3}{5}}
\newlabel{eq3}{{3}{5}}
\abx@aux@cite{0}{frank2020modeling}
\abx@aux@segm{0}{0}{frank2020modeling}
\abx@aux@cite{0}{frank2020modeling}
\abx@aux@segm{0}{0}{frank2020modeling}
\abx@aux@cite{0}{2015micrometeroids}
\abx@aux@segm{0}{0}{2015micrometeroids}
\abx@aux@cite{0}{frank2020modeling}
\abx@aux@segm{0}{0}{frank2020modeling}
\abx@aux@cite{0}{2020SciPy-NMeth}
\abx@aux@segm{0}{0}{2020SciPy-NMeth}
\newlabel{eq:Force Equations}{{4}{6}}
\newlabel{eq456}{{6}{6}}
\newlabel{eq:Simplified Force Equations}{{7}{6}}
\newlabel{eq789}{{9}{6}}
\@writefile{toc}{\contentsline {subsection}{\numberline {2.2}Process for Creating Plottable LPF Data}{6}{}\protected@file@percent }
\@writefile{toc}{\contentsline {subsection}{\numberline {2.3}Plotting Methods}{6}{}\protected@file@percent }
\@writefile{toc}{\contentsline {section}{\numberline {3}Results}{7}{}\protected@file@percent }
\newlabel{Figure 3}{{3}{7}}
\newlabel{Figure 4}{{4}{8}}
\@writefile{toc}{\contentsline {section}{\numberline {4}Test Verification}{8}{}\protected@file@percent }
\newlabel{eq:Data Simulation}{{10}{8}}
\newlabel{eq6}{{10}{8}}
\abx@aux@cite{0}{frank2020modeling}
\abx@aux@segm{0}{0}{frank2020modeling}
\newlabel{Figure 5}{{5}{9}}
\newlabel{Figure 6}{{6}{10}}
\@writefile{toc}{\contentsline {section}{\numberline {5}Conclusion}{10}{}\protected@file@percent }
\abx@aux@cite{0}{frank2020modeling}
\abx@aux@segm{0}{0}{frank2020modeling}
\abx@aux@cite{0}{shaul2006solar}
\abx@aux@segm{0}{0}{shaul2006solar}
\abx@aux@cite{0}{frank2020modeling}
\abx@aux@segm{0}{0}{frank2020modeling}
\newlabel{Figure 7}{{7}{11}}
\newlabel{Figure 8}{{8}{12}}
\@writefile{toc}{\contentsline {section}{\numberline {6}Acknowledgments}{12}{}\protected@file@percent }
\abx@aux@nociteall
\newlabel{Figure 9}{{9}{13}}
\@writefile{toc}{\contentsline {section}{\numberline {7}Supplementary Data}{13}{}\protected@file@percent }
\abx@aux@read@bbl@mdfivesum{7CF59CD0E7C6B77916E8150EC1BBC53C}
\abx@aux@defaultrefcontext{0}{amaro2017laser}{none/global//global/global}
\abx@aux@defaultrefcontext{0}{LIGO2015}{none/global//global/global}
\abx@aux@defaultrefcontext{0}{shaul2006solar}{none/global//global/global}
\abx@aux@defaultrefcontext{0}{frank2020modeling}{none/global//global/global}
\abx@aux@defaultrefcontext{0}{kaieser-et-al-2008}{none/global//global/global}
\abx@aux@defaultrefcontext{0}{https://doi.org/10.1029/1999JA000262}{none/global//global/global}
\abx@aux@defaultrefcontext{0}{aceswepamlevel2data}{none/global//global/global}
\abx@aux@defaultrefcontext{0}{thorpe2019micrometeoroid}{none/global//global/global}
\abx@aux@defaultrefcontext{0}{Grimani_2006}{none/global//global/global}
\abx@aux@defaultrefcontext{0}{10.1093/mnras/stac316}{none/global//global/global}
\abx@aux@defaultrefcontext{0}{smetana2020background}{none/global//global/global}
\abx@aux@defaultrefcontext{0}{harris2020array}{none/global//global/global}
\abx@aux@defaultrefcontext{0}{2015micrometeroids}{none/global//global/global}
\abx@aux@defaultrefcontext{0}{2020SciPy-NMeth}{none/global//global/global}
\abx@aux@defaultrefcontext{0}{armano2018beyond}{none/global//global/global}
\abx@aux@defaultrefcontext{0}{stone1998advanced}{none/global//global/global}
\abx@aux@defaultrefcontext{0}{de-mees-2014}{none/global//global/global}
\abx@aux@defaultrefcontext{0}{remote-sensing-2022}{none/global//global/global}
\gdef \@abspage@last{15}
